                   /\
                 //  \\                                            /\
                 /    \\                                         // /\
                /       \\                        /\           //     \\
               //        \\     /\    _^_    /\  // \        / \\      \\
               /           \    ||   /   \   ||      \\    //   \\\\    \\
              //            \   ||  |-----|  ||      \\\///       \ \    \\
            ///       /         || |+ +-+ +| ||         \\           \    \\\
        /// /      //    /\    __  || | | ||  __   /\     \\\\             \\\\
     ///        //       ||   /_/_ __    __ __\_\  ||          \\           \\\\
 ////          //     __ ||  _/_/_/__/   \__\_\ _  || __           \\\        \\  \\
//         /// ____  /_/ || /__/__/_/|   |\_\__\_\ || \_\  ____       \\\       \    \\
     / /////    ___\   | || /_ /_/|  _____  |\_\   || |   /___   \\      \\\     \     \\
 ///    //         \\ _____ ____ ___/| | |\___ ____ ____ //       \\\\\ \\   \\          \\
/                   \______|____|____|_|_|____|____|_____/             \\\\        \\\
                                                                            \\\        \\\